<?xml version="1.0" encoding="utf-8"?>
<!-- Generator: Adobe Illustrator 23.0.1, SVG Export Plug-In . SVG Version: 6.00 Build 0)  -->
<svg version="1.1" id="Layer_1" xmlns="http://www.w3.org/2000/svg" xmlns:xlink="http://www.w3.org/1999/xlink" x="0px" y="0px"
	 viewBox="0 0 329 126.6" style="enable-background:new 0 0 329 126.6;" xml:space="preserve">
<style type="text/css">
	.st0{fill:#8CB500;}
</style>
<title>Teo Logo</title>
<path class="st0" d="M157.7,95.2c-3,0.7-6.1,1.1-9.2,1.1c-8.6,0-15.8-2.3-21.3-6.9c-5.2-4.3-8.5-10-10-17.1c-0.1-0.4-0.2-1.4-0.7,0
	c-0.3,0.9-4.7,14.3-7.7,23.4l-2.7,8.3c0.1,0.1,0.2,0.3,0.4,0.4c0.8,0.8,1.5,1.5,2.3,2.2c10.5,9.4,23.8,14.1,39.9,14.1
	c3,0,6-0.2,9-0.5c7.4-0.8,14-2.6,19.8-5.5c8.1-4,15.1-10,20.9-18.3l-23.3-10.9C170.3,90.2,164.3,93.6,157.7,95.2"/>
<polygon class="st0" points="108.8,5.6 5.5,5.6 5.5,33.6 44,33.6 44,119.5 73,119.5 73,33.6 108.8,33.6 111.5,33.6 111.5,5.6 "/>
<path class="st0" d="M276.6,85.8c-5.7,6-12.9,9-21.5,9H255c-8.7,0-15.8-3-21.5-8.9c-5.6-5.9-8.5-13.7-8.5-23.3
	c0-9.3,2.9-17,8.6-22.9c5.7-6,12.9-9,21.5-9h0.1c8.8,0,16,3,21.6,8.9c5.6,5.9,8.5,13.6,8.5,23C285.2,72.1,282.4,79.8,276.6,85.8
	 M305.4,33.7c-5.1-8.9-12.5-16.2-21.4-21.2c-8.8-5.1-18.7-7.7-28.8-7.8h-0.5c-14.4,0-27.1,5-38.2,15c-6.7,6.1-11.7,13.1-14.8,20.9
	c-2.7-7.2-6.8-13.7-12.2-19.2c-8.6-8.8-19.2-14.1-31.8-15.9c-3.5-0.5-7-0.8-10.5-0.7c-2.9,0-5.7,0.2-8.6,0.5c0,0-9,27.3-9.2,27.9
	c-0.3,1,0.3,0.5,0.6,0.3c5.4-3.5,11.6-5.3,18.6-5.3c3.1,0,6.2,0.4,9.2,1.2c3.4,1,6.7,2.5,9.5,4.6c5.2,3.6,9,8.9,10.8,15h-53.9
	L117,70.6h81c1.6,12.7,7,23.7,16.3,33.1c11.2,11.2,24.7,16.9,40.5,16.9h0.4c10.2,0,20.2-2.6,29.1-7.6c8.8-5,16.1-12.4,21.1-21.2
	c5.1-8.9,7.8-18.9,7.7-29.2C313.1,52.4,310.5,42.4,305.4,33.7"/>
<path class="st0" d="M319,7.5v1h-1v1.8h1v1h-0.9V14h-1.3V7.5H319z M319,5c-0.6,0-1.2,0.1-1.8,0.3c-1.1,0.4-2.1,1.1-2.9,2.1
	c-0.7,1-1.2,2.2-1.1,3.5c0,0.6,0.1,1.2,0.3,1.8c0.4,1.1,1.1,2.1,2.1,2.8c1,0.7,2.2,1.1,3.4,1.1v-0.9h0c-2.1,0-3.9-1.4-4.6-3.3
	c-0.3-1-0.3-2.1,0-3.1c0.5-1.4,1.6-2.6,3.1-3.1c0.5-0.2,1-0.2,1.5-0.2h0L319,5z M319,11.4v-1h0.1c0.2,0,0.3,0,0.5-0.1
	c0.1-0.1,0.2-0.1,0.3-0.2c0.1-0.1,0.1-0.2,0.1-0.3c0-0.1,0-0.2,0-0.3c0-0.2,0-0.4-0.1-0.5c-0.1-0.1-0.1-0.2-0.2-0.3
	c-0.1-0.1-0.2-0.1-0.3-0.1c-0.1,0-0.2,0-0.3,0H319v-1h0.1c0.2,0,0.3,0,0.5,0c0.2,0,0.4,0,0.6,0.1c0.2,0.1,0.4,0.1,0.6,0.3
	c0.2,0.1,0.3,0.3,0.4,0.5c0.1,0.3,0.2,0.6,0.2,0.8c0,0.2,0,0.5-0.1,0.7c-0.1,0.2-0.2,0.3-0.3,0.5c-0.1,0.1-0.3,0.2-0.4,0.3
	c-0.1,0.1-0.3,0.1-0.4,0.1c0.2,0,0.4,0.1,0.5,0.1c0.1,0.1,0.2,0.2,0.3,0.3c0.1,0.1,0.1,0.3,0.2,0.5c0,0.2,0.1,0.4,0.1,0.6
	c0,0.1,0,0.3,0.1,0.4c0,0.2,0,0.3,0.1,0.5c0,0.2,0.1,0.3,0.1,0.5c0,0.1,0.1,0.2,0.1,0.3h-1.4c0-0.1,0-0.2,0-0.3c0-0.2,0-0.3-0.1-0.5
	c0-0.2,0-0.4-0.1-0.5c0-0.2,0-0.3-0.1-0.5c0-0.1,0-0.2,0-0.2c0-0.1-0.1-0.2-0.1-0.3c0-0.1-0.1-0.1-0.2-0.2c-0.1,0-0.2-0.1-0.4-0.1
	L319,11.4z M319,16.6c0.6,0,1.2-0.1,1.8-0.3c1.1-0.4,2.1-1.1,2.9-2.1c0.7-1,1.1-2.2,1.1-3.4c0-0.6-0.1-1.3-0.3-1.9
	c-0.4-1.1-1.1-2.1-2.1-2.8c-0.5-0.3-1-0.6-1.6-0.8C320.3,5.1,319.7,5,319,5v0.9c0.5,0,1,0.1,1.5,0.2c0.5,0.2,0.9,0.4,1.3,0.7
	c0.4,0.3,0.8,0.6,1.1,1c0.9,1.3,1.2,2.9,0.7,4.4c-0.3,1-0.9,1.8-1.8,2.4c-0.8,0.6-1.8,0.9-2.9,1V16.6z"/>
</svg>
